Project 1: Wrangling, Exploration, Visualization
…
merged %>% summarize(n_distinct(year))

## # A tibble: 1 x 1
##   `n_distinct(year)`
##                <int>
## 1                 34

# which in left not on right for anti

anti_join(infr, vehicles, by = "year") %>% distinct(year) %>% 
    arrange(year)  #year in infr not in vehicles

## # A tibble: 37 x 1
##    year 
##    <chr>
##  1 1947 
##  2 1948 
##  3 1949 
##  4 1950 
##  5 1951 
##  6 1952 
##  7 1953 
##  8 1954 
##  9 1955 
## 10 1956 
## #  with 27 more rows
anti_join(vehicles, infr, by = "year") %>% relocate(year, .before = barrels08) %>% 
    distinct(year)  #year in vehicles not in infr

## # A tibble: 5 x 1
##   year 
##   <chr>
## 1 2018 
## 2 2019 
## 3 2020 
## 4 2021 
## 5 2022

merged

## # A tibble: 38,248 x 142
##    year  barrels08 barrelsA08 charge240 city08 city08U cityA08 cityA08U cityCD
##    <chr>     <dbl>      <dbl>     <dbl>  <dbl>   <dbl>   <dbl>    <dbl>  <dbl>
##  1 2017      14.3           0         0     20    20.2       0        0      0
##  2 2017      14.3           0         0     20    20.1       0        0      0
##  3 2017      15.0           0         0     19    19.4       0        0      0
##  4 2017      15.7           0         0     19    18.9       0        0      0
##  5 2017      15.7           0         0     19    18.7       0        0      0
##  6 2017       9.99          0         0     29    29.1       0        0      0
##  7 2017      10.3           0         0     28    28.2       0        0      0
##  8 2017      11.4           0         0     26    25.8       0        0      0
##  9 2017      15.7           0         0     18    18.2       0        0      0
## 10 2017      16.5           0         0     17    17.4       0        0      0
## #  with 38,238 more rows, and 133 more variables: cityE <dbl>, cityUF <dbl>,
## #   co2 <dbl>, co2A <dbl>, co2TailpipeAGpm <dbl>, co2TailpipeGpm <dbl>,
## #   comb08 <dbl>, comb08U <dbl>, combA08 <dbl>, combA08U <dbl>, combE <dbl>,
## #   combinedCD <dbl>, combinedUF <dbl>, cylinders <dbl>, displ <dbl>,
## #   drive <chr>, engId <dbl>, eng_dscr <chr>, feScore <dbl>, fuelCost08 <dbl>,
## #   fuelCostA08 <dbl>, fuelType <chr>, fuelType1 <chr>, ghgScore <dbl>,
## #   ghgScoreA <dbl>, highway08 <dbl>, highway08U <dbl>, highwayA08 <dbl>,
## #   highwayA08U <dbl>, highwayCD <dbl>, highwayE <dbl>, highwayUF <dbl>,
## #   hlv <dbl>, hpv <dbl>, id <dbl>, lv2 <dbl>, lv4 <dbl>, make <chr>,
…
delete_nas <- function(x) {
    mean(is.na(x)) < 0.4
}

n_nas <- function(x) {
    sum(is.na(x))
}

merged1 <- merged1 %>% select_if(delete_nas)  #final selects columns that have NA ratio less than 0.4

merged1

## # A tibble: 38,025 x 95
##     year barrels08 city08   co2  co2A co2TailpipeGpm comb08 cylinders displ
##    <dbl>     <dbl>  <dbl> <dbl> <dbl>          <dbl>  <dbl>     <dbl> <dbl>
##  1  2017     14.3      20   388    -1            388     23         4   2  
##  2  2017     14.3      20   396    -1            396     23         4   2  
##  3  2017     15.0      19   410    -1            410     22         4   2  
##  4  2017     15.7      19   425    -1            425     21         4   2  
##  5  2017     15.7      19   419    -1            419     21         6   3  
##  6  2017      9.99     29   272    -1            272     33         4   2  
##  7  2017     10.3      28   282    -1            282     32         4   2  
##  8  2017     11.4      26   301    -1            301     29         4   2  
##  9  2017     15.7      18   427    -1            427     21         6   3.3
## 10  2017     16.5      17   457    -1            457     20         6   3.3
## #  with 38,015 more rows, and 86 more variables: drive <chr>, engId <dbl>,
## #   feScore <dbl>, fuelCost08 <dbl>, fuelType <chr>, fuelType1 <chr>,
## #   ghgScore <dbl>, ghgScoreA <dbl>, highway08 <dbl>, id <dbl>, lv4 <dbl>,
## #   make <chr>, model <chr>, mpgData <chr>, pv4 <dbl>, trany <chr>,
## #   UCity <dbl>, UHighway <dbl>, VClass <chr>, youSaveSpend <dbl>, `Total
## #   infrastructure` <dbl>, `Total basic infrastructure` <dbl>, `Total social
## #   infrastructure` <dbl>, `Total digital infrastructure` <dbl>, Private <dbl>,
## #   Federal <dbl>, `S&L` <dbl>, Water <dbl>, Sewer <dbl>, `Conservation and
## #   development` <dbl>, Power <dbl>, Transportation <dbl>, `Water
…
To start off, I cleaned up the merged dataset by trying to remove most electric vehicles (I use mutate to create a logical column that determines whether or not most cars are electric, and filtered by those that have a false value for this). I also only selected columns that have a value of 0 less than 25% of the time by using the created delete_zero function. Tables used in visualizations were also created using this altered dataset.

merged1 %>% group_by(make, model, year) %>% group_by(n = n(), 
    add = TRUE) %>% summarize_at("comb08", .funs = list(avgmpg = mean, 
    sd = sd, var = var), na.rm = T) %>% relocate(n, .after = var)  #avg mpg per model per year with sd and var

## # A tibble: 17,004 x 7
## # Groups:   make, model, year [17,004]
##    make  model        year avgmpg     sd   var     n
##    <chr> <chr>       <dbl>  <dbl>  <dbl> <dbl> <int>
##  1 Acura 2.2CL/3.0CL  1997   22    2       4       3
##  2 Acura 2.3CL/3.0CL  1998   22    2       4       3
##  3 Acura 2.3CL/3.0CL  1999   22    2       4       3
##  4 Acura 2.5TL        1995   20   NA      NA       1
##  5 Acura 2.5TL/3.2TL  1996   19.5  0.707   0.5     2
##  6 Acura 2.5TL/3.2TL  1997   19.5  0.707   0.5     2
##  7 Acura 2.5TL/3.2TL  1998   19.5  0.707   0.5     2
##  8 Acura 3.2CL        2001   20   NA      NA       1
##  9 Acura 3.2CL        2002   21   NA      NA       1
## 10 Acura 3.2CL        2003   20.5  0.707   0.5     2
## #  with 16,994 more rows
…
